% (){ :;}; gs -q "$0"; exit  # bash-recognized shebang to run this file with ghostscript
%!PS
%% Title: 99 Bottles of Beer
<< /PageSize [595 842] >> setpagedevice

/yoffset 782 def
/br 12 def
/p 20 def
/n 2 string def

/Times-Roman 24 selectfont
72 761 moveto
(99 Bottles of Beer) show
/yoffset 714 def

/Helvetica 10 selectfont

( bottle)( of beer)( on the wall)(Take one down and pass it around,)
99 -1 1 {                                   % for (n = 99; n > 0; --n)
    dup 10 lt {                             % if (n < 10)
        /n 1 string def
    } if
    dup 99 lt {                             % if (n < 99)
        dup
        n cvs show                          % print n
        4 3 roll dup show                   % print  bottle
        exch dup 1 ne { (s) show } if       % if (n == 1) print s
        4 3 roll dup show                   % print  of beer
        5 4 roll dup show (.) show          % print  on the wall.
        5 4 roll
        4 3 roll
        yoffset 65 lt {
            showpage                        % new page
            /yoffset 770 def
        }{
            /yoffset yoffset p sub def
        } ifelse
    } if                                    % end if

    dup
    72 yoffset moveto
    n cvs show                              % print n
    5 4 roll dup show                       % print  bottle
    exch dup 1 ne { (s) show } if           % if (n == 1) print s
    5 4 roll dup show                       % print  of beer
    5 4 roll dup show (,) show              % print  on the wall,
    /yoffset yoffset br sub def 72 yoffset moveto
    n show                                  % print n
    4 3 roll dup show                       % print  bottle
    4 3 roll 1 ne { (s) show } if           % if (n == 1) print s
    3 2 roll dup show (.) show              % print  of beer.
    /yoffset yoffset br sub def 72 yoffset moveto
    4 3 roll dup show                       % Take one down and pass it around,
    /yoffset yoffset br sub def 72 yoffset moveto
} for                                       % end for
(No more) show                              % print No more
pop exch show (s) show show show (.) show   % print  bottles of beer on the wall

showpage
%quit   % this will quit Adobe Distiller before producing PDF

% print current page and stack and exit:
%showpage stack quit
