% (){ :;}; gs -q "$0"; exit  # bash-recognized shebang to run this file with ghostscript
%!PS
/n 2 string def
( bottle)( of beer)( on the wall)(Take one down and pass it around,)
99 -1 1 {                                   % for (n = 99; n > 0; --n)
    dup 99 lt {                             % if (n < 99)
        dup
        n cvs print                         % print n
        4 3 roll dup print                  % print  bottle
        exch dup 1 ne { (s) print } if      % if (n == 1) print s
        4 3 roll dup print                  % print  of beer
        5 4 roll dup print (.)=             % print  on the wall.
        () =
        5 4 roll
        4 3 roll
    } if                                    % end if

    (\0\0) n cvs pop                        % n = "\0\0"
    dup
    n cvs print                             % print n
    5 4 roll dup print                      % print  bottle
    exch dup 1 ne { (s) print } if          % if (n == 1) print s
    5 4 roll dup print                      % print  of beer
    5 4 roll dup print (,)=                 % print  on the wall,
    n print                                 % print n
    4 3 roll dup print                      % print  bottle
    4 3 roll 1 ne { (s) print } if          % if (n == 1) print s
    3 2 roll dup print (.)=                 % print  of beer.
    4 3 roll dup =                          % Take one down and pass it around,
} for                                       % end for
(No more) print                             % print No more
pop exch print (s) print print print (.)=   % print  bottles of beer on the wall

quit

% print current stack and exit:
%()=(---)= stack quit    
